# DESCRIPTION: Verilator output: Timestamp data for --skip-identical.  Delete at will.
C ""
S     35836  1440521051 "/home/sonlam/Git/Formal_method/Test/MIP/Design/ALU.v"
S       553  1440521051 "/home/sonlam/Git/Formal_method/Test/MIP/Design/Add.v"
S     50141  1440521051 "/home/sonlam/Git/Formal_method/Test/MIP/Design/CPZero.v"
S      1058  1440521051 "/home/sonlam/Git/Formal_method/Test/MIP/Design/Compare.v"
S     50656  1440521051 "/home/sonlam/Git/Formal_method/Test/MIP/Design/Control.v"
S      3354  1440521051 "/home/sonlam/Git/Formal_method/Test/MIP/Design/Divide.v"
S      5539  1440521051 "/home/sonlam/Git/Formal_method/Test/MIP/Design/EXMEM_Stage.v"
S      8660  1440521051 "/home/sonlam/Git/Formal_method/Test/MIP/Design/Hazard_Detection.v"
S      8033  1440521051 "/home/sonlam/Git/Formal_method/Test/MIP/Design/IDEX_Stage.v"
S      3322  1440521051 "/home/sonlam/Git/Formal_method/Test/MIP/Design/IFID_Stage.v"
S      3136  1440521051 "/home/sonlam/Git/Formal_method/Test/MIP/Design/MEMWB_Stage.v"
S     34897  1440521051 "/home/sonlam/Git/Formal_method/Test/MIP/Design/MemControl.v"
S       655  1440521051 "/home/sonlam/Git/Formal_method/Test/MIP/Design/Mux2.v"
S       839  1440521051 "/home/sonlam/Git/Formal_method/Test/MIP/Design/Mux4.v"
S     46733  1440521051 "/home/sonlam/Git/Formal_method/Test/MIP/Design/Processor.v"
S       877  1440521051 "/home/sonlam/Git/Formal_method/Test/MIP/Design/Register.v"
S      7896  1440521051 "/home/sonlam/Git/Formal_method/Test/MIP/Design/RegisterFile.v"
S       692  1440521051 "/home/sonlam/Git/Formal_method/Test/MIP/Design/TrapDetect.v"
S       628  1441198704 "/home/sonlam/Git/Formal_method/Test/MIP/Property/mip_lwdata.sv"
S  46010417  1441612361 "/home/sonlam/workspace/EDA_MIP_normal/fck-bk-dbg"
T      1241  1441613522 "obj_dir/Vmip_lwdata__ver.d"
T         0  1441613523 "obj_dir/Vmip_lwdata__verFiles.dat"
